<?xml version="1.0" encoding="UTF-8" standalone="no"?>
<svg xmlns="http://www.w3.org/2000/svg" version="1.1"
	width="200" height="150" viewBox="0 0 52.916708 39.6875">
	<g transform="translate(-9.1044133,-34.251689)">
		<g transform="matrix(4.1152856,0,0,4.1152856,-13.577469,-310.82372)">
			<rect
				id="laptop" style="fill:#ffffff;stroke:#000000;stroke-width:0.26511249;stroke-linecap:round;stroke-linejoin:round"
				width="8.3154764" height="5.5751486"
				x="7.8430066" y="-91.758926"
				transform="scale(1,-1)" />
			<path
				style="fill:#ffffff;stroke:#000000;stroke-width:0.26499999;stroke-linecap:round;stroke-linejoin:round"
				d="m 7.8430066,91.758926 h 8.3154764 l 1.606399,1.559152 H 6.2366078 Z" />
		</g>
	</g>
</svg>
